%YAML 1.1
%TAG !u! tag:unity3d.com,2011:
--- !u!74 &7400000
AnimationClip:
  m_ObjectHideFlags: 0
  m_PrefabParentObject: {fileID: 0}
  m_PrefabInternal: {fileID: 0}
  m_Name: Gravityfield
  serializedVersion: 4
  m_AnimationType: 2
  m_Compressed: 0
  m_UseHighQualityCurve: 1
  m_RotationCurves: []
  m_CompressedRotationCurves: []
  m_PositionCurves: []
  m_ScaleCurves: []
  m_FloatCurves: []
  m_PPtrCurves:
  - curve:
    - time: 0
      value: {fileID: 21300000, guid: da51ce9a8979f994ea740e98ed1818b0, type: 3}
    - time: .0833333358
      value: {fileID: 21300000, guid: c5d3b8ea90a356843ad90cd0b9bec6e1, type: 3}
    - time: .166666672
      value: {fileID: 21300000, guid: db6488980b4c0014282099e98bddd8f6, type: 3}
    - time: .25
      value: {fileID: 21300000, guid: cd8c42e7c2659214d9fb70278d7354af, type: 3}
    - time: .333333343
      value: {fileID: 21300000, guid: e3324d683fa59b04da10544aeda2ff51, type: 3}
    - time: .416666657
      value: {fileID: 21300000, guid: 4974d462c83a50247803dd1c3adff3c0, type: 3}
    attribute: m_Sprite
    path: 
    classID: 212
    script: {fileID: 0}
  m_SampleRate: 12
  m_WrapMode: 0
  m_Bounds:
    m_Center: {x: 0, y: 0, z: 0}
    m_Extent: {x: 0, y: 0, z: 0}
  m_ClipBindingConstant:
    genericBindings:
    - path: 0
      attribute: 0
      script: {fileID: 0}
      classID: 212
      customType: 23
      isPPtrCurve: 1
    pptrCurveMapping:
    - {fileID: 21300000, guid: da51ce9a8979f994ea740e98ed1818b0, type: 3}
    - {fileID: 21300000, guid: c5d3b8ea90a356843ad90cd0b9bec6e1, type: 3}
    - {fileID: 21300000, guid: db6488980b4c0014282099e98bddd8f6, type: 3}
    - {fileID: 21300000, guid: cd8c42e7c2659214d9fb70278d7354af, type: 3}
    - {fileID: 21300000, guid: e3324d683fa59b04da10544aeda2ff51, type: 3}
    - {fileID: 21300000, guid: 4974d462c83a50247803dd1c3adff3c0, type: 3}
  m_AnimationClipSettings:
    serializedVersion: 2
    m_StartTime: 0
    m_StopTime: .5
    m_OrientationOffsetY: 0
    m_Level: 0
    m_CycleOffset: 0
    m_LoopTime: 1
    m_LoopBlend: 0
    m_LoopBlendOrientation: 0
    m_LoopBlendPositionY: 0
    m_LoopBlendPositionXZ: 0
    m_KeepOriginalOrientation: 0
    m_KeepOriginalPositionY: 1
    m_KeepOriginalPositionXZ: 0
    m_HeightFromFeet: 0
    m_Mirror: 0
  m_EditorCurves: []
  m_EulerEditorCurves: []
  m_Events: []
